Funcao para atualizar dados de mananciais — atualizar_dados • mananciais
…
    Usando os dados disponíveis no dados_mananciais(),
confere quais são os dias faltantes e busca os mesmos

atualizar_dados()

    Value

    Uma tibble

    Examples

atualizar_dados()

#> [1] "Os dados ja estao atualizados, nao foi necessario atualizar"
#> # A tibble: 48,078 x 8
#>    data       sistema      volume_porcentagem volume_variacao volume_operacional
#>    <date>     <chr>                     <dbl>           <dbl>              <dbl>
#>  1 2021-05-21 Cantareira                 48.7            -0.1             479.  
#>  2 2021-05-21 Alto Tietê                 58.5            -0.1             328.  
#>  3 2021-05-21 Guarapiranga               69              -0.3             118.  
#>  4 2021-05-21 Cotia                      77.6            -0.2              12.8 
#>  5 2021-05-21 Rio Grande                 87.1            -0.3              97.7 
#>  6 2021-05-21 Rio Claro                  64              -2                 8.75
#>  7 2021-05-21 São Lourenço               78.8            -0.4              69.9 
#>  8 2021-05-20 Cantareira                 48.8            -0.1             480.  
#>  9 2021-05-20 Alto Tietê                 58.6             0               328.  
#> 10 2021-05-20 Guarapiranga               69.3            -0.3             119.  
#> # … with 48,068 more rows, and 3 more variables: pluviometria_dia <dbl>,
#> #   pluviometria_mensal <dbl>, pluviometria_hist <dbl>
…
