Mananciais — dados_mananciais • mananciais
…
    Obter dados atualizados sobre os mananciais

dados_mananciais()

    Value

    tibble

    Examples

dados_mananciais()

#> # A tibble: 47,847 x 8
#>    data       sistema      volume_porcentagem volume_variacao volume_operacional
#>    <date>     <chr>                     <dbl>           <dbl>              <dbl>
#>  1 2021-04-18 Cantareira                 51.5            -0.2             506.  
#>  2 2021-04-18 Alto Tietê                 59.2            -0.2             332.  
#>  3 2021-04-18 Guarapiranga               69.6             0.8             119.  
#>  4 2021-04-18 Cotia                      78.8             0.4              13.0 
#>  5 2021-04-18 Rio Grande                 86.2             1                96.7 
#>  6 2021-04-18 Rio Claro                  54.6             0.1               7.46
#>  7 2021-04-18 São Lourenço               66.7             0.5              59.2 
#>  8 2021-04-17 Cantareira                 51.7            -0.1             507.  
#>  9 2021-04-17 Alto Tietê                 59.4            -0.2             333.  
#> 10 2021-04-17 Guarapiranga               68.8            -0.2             118.  
#> # … with 47,837 more rows, and 3 more variables: pluviometria_dia <dbl>,
#> #   pluviometria_mensal <dbl>, pluviometria_hist <dbl>
…
